<?xml version="1.0" encoding="utf-8"?>
<!-- Generator: Adobe Illustrator 21.0.0, SVG Export Plug-In . SVG Version: 6.00 Build 0)  -->
<svg version="1.1" id="Layer_1" xmlns="http://www.w3.org/2000/svg" xmlns:xlink="http://www.w3.org/1999/xlink" x="0px" y="0px"
	 viewBox="0 0 90 90" style="enable-background:new 0 0 90 90;" xml:space="preserve">
<path style="fill:#FFFFFF;" d="M72,31c0,1.1-0.9,2-2,2H20c-1.1,0-2-0.9-2-2v-2c0-1.1,0.9-2,2-2h50c1.1,0,2,0.9,2,2V31z"/>
<path style="fill:#FFFFFF;" d="M66,47c0,1.1-0.9,2-2,2H26c-1.1,0-2-0.9-2-2v-2c0-1.1,0.9-2,2-2h38c1.1,0,2,0.9,2,2V47z"/>
<path style="fill:#FFFFFF;" d="M60,63c0,1.1-0.9,2-2,2H32c-1.1,0-2-0.9-2-2v-2c0-1.1,0.9-2,2-2h26c1.1,0,2,0.9,2,2V63z"/>
<path style="fill:#FFFFFF;" d="M45,6c21.5,0,39,17.5,39,39S66.5,84,45,84S6,66.5,6,45S23.5,6,45,6 M45,0C20.1,0,0,20.1,0,45s20.1,45,45,45s45-20.1,45-45
	S69.9,0,45,0L45,0z"/>
</svg>
