<?xml version="1.0" encoding="utf-8"?>
<!-- Generator: Adobe Illustrator 16.0.0, SVG Export Plug-In . SVG Version: 6.00 Build 0)  -->
<!DOCTYPE svg PUBLIC "-//W3C//DTD SVG 1.1//EN" "http://www.w3.org/Graphics/SVG/1.1/DTD/svg11.dtd">
<svg version="1.1" id="Layer_1" xmlns="http://www.w3.org/2000/svg" xmlns:xlink="http://www.w3.org/1999/xlink" x="0px" y="0px"
	 width="15px" height="32px" viewBox="0 0 15 32" enable-background="new 0 0 15 32" xml:space="preserve">
    <path fill="#ffffff" d="M7.5,15C3.364,15,0,11.636,0,7.5S3.364,0,7.5,0S15,3.364,15,7.5S11.636,15,7.5,15z M7.5,1
        C3.916,1,1,3.916,1,7.5S3.916,14,7.5,14S14,11.084,14,7.5S11.084,1,7.5,1z"/>
    <path fill="#ffffff" d="M7.5,31C3.364,31,0,27.636,0,23.5C0,19.365,3.364,16,7.5,16s7.5,3.365,7.5,7.5C15,27.636,11.636,31,7.5,31z
        M7.5,17C3.916,17,1,19.916,1,23.5S3.916,30,7.5,30s6.5-2.916,6.5-6.5S11.084,17,7.5,17z"/>
    <circle fill="#ffffff" cx="7.5" cy="23.5" r="4.775"/>
</svg>
