<?xml version="1.0" encoding="utf-8"?>
<!-- Generator: Adobe Illustrator 21.0.0, SVG Export Plug-In . SVG Version: 6.00 Build 0)  -->
<svg version="1.1" id="Layer_1" xmlns="http://www.w3.org/2000/svg" xmlns:xlink="http://www.w3.org/1999/xlink" x="0px" y="0px"
	 viewBox="0 0 47.7 41.5" style="enable-background:new 0 0 47.7 41.5;" xml:space="preserve">
<style type="text/css">
	.st0{fill:#D9D9D6;}
</style>
<g>
	<path class="st0" d="M41.9,2.8C39.7,1,36.9,0,34,0c-3.4,0-6.6,1.3-9,3.7c-0.4,0.4-0.8,0.9-1.2,1.4C21,1.3,16.3-0.7,11.6,0.2
		C7.7,0.9,4.6,3,2.5,6.6c-3,5-3.3,9.7-0.7,14.2c1.4,2.4,3.1,4.7,5.4,7.1c4.1,4.4,9,8.6,15.4,13.2c0.4,0.3,0.8,0.4,1.3,0.4
		c0.7,0,1.2-0.4,1.4-0.5c5.7-4.1,10.3-8,14.2-11.9c2.2-2.3,4.7-5,6.6-8.5c0.8-1.5,1.7-3.5,1.6-5.7C47.6,9.9,45.6,5.9,41.9,2.8z"/>
</g>
</svg>
